             precision    recall  f1-score   support

        NNP       0.99      0.91      0.95      1998
       HYPH       0.83      0.90      0.86        98
          :       0.95      0.89      0.92       100
         JJ       0.90      0.89      0.90      1564
        NNS       0.60      0.47      0.53       905
        VBD       0.42      0.36      0.39       529
          ,       0.98      0.98      0.98       980
         DT       0.99      0.99      0.99      1952
         NN       0.78      0.88      0.83      3317
         IN       0.97      0.97      0.97      2314
          .       1.00      1.00      1.00      1451
      -LRB-       1.00      1.00      1.00       114
         MD       0.99      0.99      0.99       400
         VB       0.82      0.83      0.83      1128
        VBG       0.67      0.55      0.60       342
        PRP       0.98      0.98      0.98      1425
         TO       0.93      0.99      0.96       375
      -RRB-       1.00      1.00      1.00       114
        VBN       0.72      0.66      0.69       453
         RP       0.78      0.78      0.78        92
         CD       0.94      0.95      0.95       536
        VBZ       0.62      0.67      0.64       578
         RB       0.94      0.93      0.93      1272
       NNPS       0.76      0.71      0.73        78
        VBP       0.66      0.71      0.68       719
       PRP$       0.91      0.93      0.92       330
         CC       0.99      0.99      0.99       738
         WP       0.95      0.97      0.96        93
         EX       0.94      0.96      0.95        48
        WDT       0.86      0.87      0.87       111
        RBR       0.74      0.54      0.62        26
        PDT       0.95      1.00      0.97        19
        JJR       0.71      0.87      0.78        46
        WRB       1.00      1.00      1.00        90
        JJS       0.86      0.99      0.92        82
         ``       0.85      0.84      0.85        89
         ''       0.83      0.86      0.84        88
        POS       0.99      0.97      0.98        72
        RBS       0.92      0.55      0.69        20
        WP$       0.00      0.00      0.00         0
        ADD       0.98      0.90      0.94        97
         FW       0.57      0.31      0.40        13
         LS       0.67      0.67      0.67         3
         UH       0.96      0.84      0.90       118
        AFX       0.33      0.20      0.25         5
          $       0.97      1.00      0.98        30
        NFP       0.96      0.93      0.95       103
        SYM       0.70      0.90      0.79        21
         GW       0.42      0.65      0.51        20
         XX       0.00      0.00      0.00         1

avg / total       0.88      0.88      0.88     25097
